autostart = False
[localhost:7200]
    workingdir = /tmp
    udp = 10000
    [[3640]]
        image = /Data/IOS Images/c3640-jk9o3s-mz.124-16.bin
        idlepc = 0x605050b4
        ghostios = True
        chassis = 3640
    [[ROUTER R4]]
        model = 3640
        console = 2003
        cnfg = configs/R4.cfg
        slot0 = NM-1FE-TX
        f0/0 = R1 f2/0
        x = 46.1959594929
        y = -188.170093579
    [[ROUTER R1]]
        model = 3640
        console = 2000
        cnfg = configs/R1.cfg
        slot0 = NM-1FE-TX
        f0/0 = R2 f0/0
        slot1 = NM-1FE-TX
        f1/0 = R3 f0/0
        slot2 = NM-1FE-TX
        f2/0 = R4 f0/0
        slot3 = NM-1FE-TX
        f3/0 = R5 f0/0
        x = -163.67766953
        y = -70.0380592229
    [[ROUTER R2]]
        model = 3640
        console = 2001
        cnfg = configs/R2.cfg
        slot0 = NM-1FE-TX
        f0/0 = R1 f0/0
        x = -354.73358544
        y = -187.462986798
    [[ROUTER R3]]
        model = 3640
        console = 2002
        cnfg = configs/R3.cfg
        slot0 = NM-1FE-TX
        f0/0 = R1 f1/0
        x = -351.905158315
        y = 57.1959594929
[localhost:7201]
    workingdir = /tmp
    udp = 10100
    [[3640]]
        image = /Data/IOS Images/c3640-jk9o3s-mz.124-16.bin
        idlepc = 0x605050b4
        ghostios = True
        chassis = 3640
    [[ROUTER R5]]
        model = 3640
        console = 2004
        cnfg = configs/R5.cfg
        slot0 = NM-1FE-TX
        f0/0 = R1 f3/0
        x = 44.7817459305
        y = 55.7817459305
[GNS3-DATA]
    configs = configs
    m11 = 1.41421356237
    m22 = 1.41421356237
    [[NOTE 1]]
        text = .1
        x = -309.71277016
        y = 32.5477272148
        color = "#0000ff"
    [[NOTE 2]]
        text = .3
        x = 45.9619407771
        y = 33.2548339959
        color = "#0000ff"
    [[NOTE 3]]
        text = .3
        x = 16.2634559673
        y = -169.684812205
        color = "#0000ff"
    [[NOTE 4]]
        text = .2
        x = -99.7020561473
        y = -48.0624458405
        color = "#0000ff"
    [[NOTE 5]]
        text = .2
        x = -185.261976671
        y = -71.3969696197
        color = "#0000ff"
    [[NOTE 6]]
        text = .2
        x = -184.55486989
        y = -45.2340187158
        color = "#0000ff"
    [[NOTE 7]]
        text = .2
        x = -98.2878425849
        y = -71.3969696197
        color = "#0000ff"
    [[NOTE 8]]
        text = .1
        x = -287.085353162
        y = -167.563491861
        color = "#0000ff"
    [[NOTE 9]]
        text = 192.168.13.0 /24
        x = -94.752308679
        y = 12.0416305603
        color = "#0000ff"
    [[NOTE 10]]
        text = 192.168.12.0 /24
        x = -306.177236254
        y = 13.4558441227
        color = "#0000ff"
    [[NOTE 11]]
        text = 192.168.13.0 /24
        x = -90.5096679919
        y = -119.48023074
        color = "#0000ff"
    [[NOTE 12]]
        text = 192.168.12.0 /24
        x = -297.69195488
        y = -119.48023074
        color = "#0000ff"
    [[NOTE 13]]
        text = L0: 2.2.2.2
        x = 116.672618896
        y = 67.1959594929
        color = "#0000ff"
    [[NOTE 14]]
        text = L0: 2.2.2.2
        x = 116.672618896
        y = -178.170093579
        color = "#0000ff"
    [[NOTE 15]]
        text = L0: 1.1.1.1
        x = -441.941738242
        y = 68.6101730553
        color = "#0000ff"
    [[NOTE 16]]
        text = L0: 1.1.1.1
        x = -441.941738242
        y = -179.584307141
        color = "#0000ff"
    [[NOTE 17]]
        text = ISP
        x = -147.078210487
        y = -94.7314933988
        color = "#1a1a1a"
    [[NOTE 18]]
        text = MelonBranch
        x = 28.9913780286
        y = 101.13708499
        color = "#1a1a1a"
    [[NOTE 19]]
        text = MelonHQ
        x = -354.967604156
        y = 101.13708499
        color = "#1a1a1a"
    [[NOTE 20]]
        text = GrapeBranch
        x = 31.8198051534
        y = -216.353859763
        color = "#1a1a1a"
    [[NOTE 21]]
        text = GrapeHQ
        x = -359.210244843
        y = -214.232539419
        color = "#1a1a1a"
    [[NOTE 22]]
        text = f0/0
        x = -37.9800137777
        y = 2.2689693113
        interface = R5 f0/0
        color = "#1a1a1a"
    [[NOTE 23]]
        text = f0/0
        x = 0.53384347349
        y = 44.3502707258
        interface = R4 f0/0
        color = "#1a1a1a"
    [[NOTE 24]]
        text = f0/0
        x = 67.2658712818
        y = 1.36386505904
        interface = R3 f0/0
        color = "#1a1a1a"
    [[NOTE 25]]
        text = f0/0
        x = 30.3085531432
        y = 42.237646917
        interface = R2 f0/0
        color = "#1a1a1a"
    [[NOTE 26]]
        text = f3/0
        x = 43.8759373768
        y = 50.2163120629
        interface = R1 f3/0
        color = "#1a1a1a"
    [[NOTE 27]]
        text = f2/0
        x = 52.7382344652
        y = -23.684794505
        interface = R1 f2/0
        color = "#1a1a1a"
    [[NOTE 28]]
        text = f1/0
        x = -21.064861155
        y = 52.5356298776
        interface = R1 f1/0
        color = "#1a1a1a"
    [[NOTE 29]]
        text = f0/0
        x = -22.2913092005
        y = -24.4005978209
        interface = R1 f0/0
        color = "#1a1a1a"
