Mar 25 15:20:49.270 HYPERVISOR: Release 0.2.14-amd64/Linux (tag 2014092320)
Mar 25 15:20:49.270 HYPERVISOR: Started on IP = 127.0.0.1, TCP port = 7201.
Mar 25 15:20:49.276 HYPERVISOR: exec_cmd: hypervisor version 
Mar 25 15:20:49.276 HYPERVISOR: exec_cmd: hypervisor uuid 
Mar 25 15:20:49.276 HYPERVISOR: exec_cmd: hypervisor working_dir /home/actionmystique/Google Drive/Missions/Certifications/Cisco/Labs/GNS3/CCNP/ROUTE/EIGRP/Jean-Christophe/1+/K2 Load Metric Weight with IOSv-linux/K2 Load Metric Weight with IOSv-linux-files/dynamips 
Mar 25 15:20:49.276 GENERAL: working_dir=/home/actionmystique/Google Drive/Missions/Certifications/Cisco/Labs/GNS3/CCNP/ROUTE/EIGRP/Jean-Christophe/1+/K2 Load Metric Weight with IOSv-linux/K2 Load Metric Weight with IOSv-linux-files/dynamips
Mar 25 15:20:49.277 HYPERVISOR: exec_cmd: vm create SW1_Management 2 c3725 
Mar 25 15:20:49.277 VM: VM SW1_Management created.
Mar 25 15:20:49.277 HYPERVISOR: exec_cmd: vm set_con_tcp_port SW1_Management 2001 
Mar 25 15:20:49.277 HYPERVISOR: exec_cmd: vm set_aux_tcp_port SW1_Management 2502 
Mar 25 15:20:49.277 HYPERVISOR: exec_cmd: c3725 get_mac_addr SW1_Management 
Mar 25 15:20:49.277 HYPERVISOR: exec_cmd: vm set_ram SW1_Management 256 
Mar 25 15:20:49.277 HYPERVISOR: exec_cmd: vm set_ios SW1_Management /media/actionmystique/SAMSUNG-Ext4/Images/GNS3/IOS/c3725-adventerprisek9-mz.124-15.T10.image 
Mar 25 15:20:49.278 HYPERVISOR: exec_cmd: vm set_sparse_mem SW1_Management 1 
Mar 25 15:20:49.278 HYPERVISOR: exec_cmd: vm set_ram_mmap SW1_Management 1 
Mar 25 15:20:49.278 HYPERVISOR: exec_cmd: vm set_aux_tcp_port SW1_Management 2102 
Mar 25 15:20:49.278 HYPERVISOR: exec_cmd: c3725 set_mac_addr SW1_Management c202.2115.0000 
Mar 25 15:20:49.278 HYPERVISOR: exec_cmd: vm set_ghost_status SW1_Management 2 
Mar 25 15:20:49.278 HYPERVISOR: exec_cmd: vm set_ghost_file SW1_Management c3725-adventerprisek9-mz.124-15.T10.image-256.ghost 
Mar 25 15:20:49.301 HYPERVISOR: exec_cmd: vm set_config SW1_Management configs/i2_startup-config.cfg 
Mar 25 15:20:49.301 HYPERVISOR: exec_cmd: vm get_status SW1_Management 
Mar 25 15:20:49.301 HYPERVISOR: exec_cmd: vm set_idle_pc SW1_Management 0x6026b804 
Mar 25 15:20:49.301 HYPERVISOR: exec_cmd: vm get_status SW1_Management 
Mar 25 15:20:49.301 HYPERVISOR: exec_cmd: vm slot_add_binding SW1_Management 1 0 NM-16ESW 
Mar 25 15:20:49.301 HYPERVISOR: exec_cmd: vm get_status SW1_Management 
Mar 25 15:20:49.316 HYPERVISOR: exec_cmd: nio create_udp_auto nio_udp_auto2 127.0.0.1 10001 20000 
Mar 25 15:20:49.317 HYPERVISOR: exec_cmd: nio create_udp_auto nio_udp_auto3 127.0.0.1 10001 20000 
Mar 25 15:20:49.324 HYPERVISOR: exec_cmd: nio create_tap nio_tap1 tap0 
Mar 25 15:20:49.324 HYPERVISOR: exec_cmd: vm slot_add_nio_binding SW1_Management 1 1 nio_tap1 
Mar 25 15:20:49.324 HYPERVISOR: exec_cmd: vm get_status SW1_Management 
Mar 25 15:20:49.363 HYPERVISOR: exec_cmd: nio connect_udp_auto nio_udp_auto2 127.0.0.1 40015 
Mar 25 15:20:49.364 HYPERVISOR: exec_cmd: vm slot_add_nio_binding SW1_Management 1 2 nio_udp_auto2 
Mar 25 15:20:49.364 HYPERVISOR: exec_cmd: vm get_status SW1_Management 
Mar 25 15:20:49.371 HYPERVISOR: exec_cmd: nio connect_udp_auto nio_udp_auto3 127.0.0.1 40016 
Mar 25 15:20:49.371 HYPERVISOR: exec_cmd: vm slot_add_nio_binding SW1_Management 1 0 nio_udp_auto3 
Mar 25 15:20:49.371 HYPERVISOR: exec_cmd: vm get_status SW1_Management 
Mar 25 15:53:35.252 HYPERVISOR: exec_cmd: vm extract_config SW1_Management 
Mar 25 15:53:35.300 HYPERVISOR: exec_cmd: hypervisor stop 
