autostart = False
version = 0.8.3
[localhost:7202]
    workingdir = C:\Users\ActionMystique\Documents\Missions\GNS3\Temp
    udp = 10100
    [[3640]]
        image = C:\Users\ActionMystique\Documents\Missions\IOS\Binaries\c3640-jk9o3s-mz.124-16a.bin
        idlepc = 0x606104a0
        sparsemem = True
        ghostios = True
        chassis = 3640
    [[ROUTER R11]]
        model = 3640
        console = 2010
        aux = 2100
        cnfg = BGPAdvanced_configs\R11.cfg
        slot0 = NM-1FE-TX
        f0/0 = R7 f1/0
        slot1 = NM-1FE-TX
        f1/0 = R10 f0/0
        x = -337.0
        y = 181.0
        z = 1.0
        hx = 16.5
        hy = 40.0
    [[ROUTER R9]]
        model = 3640
        console = 2008
        aux = 2101
        cnfg = BGPAdvanced_configs\R9.cfg
        slot0 = NM-1FE-TX
        f0/0 = R10 f1/0
        slot1 = NM-1FE-TX
        f1/0 = R8 f0/0
        x = -662.0
        y = 262.0
        z = 1.0
        hx = -23.5
        hy = 12.0
    [[ROUTER R10]]
        model = 3640
        console = 2009
        aux = 2102
        cnfg = BGPAdvanced_configs\R10.cfg
        slot0 = NM-1FE-TX
        f0/0 = R11 f1/0
        slot1 = NM-1FE-TX
        f1/0 = R9 f0/0
        x = -463.0
        y = 181.0
        z = 1.0
        hx = 18.5
        hy = 41.0
[localhost:7200]
    workingdir = C:\Users\ActionMystique\Documents\Missions\GNS3\Temp
    udp = 10200
    [[3640]]
        image = C:\Users\ActionMystique\Documents\Missions\IOS\Binaries\c3640-jk9o3s-mz.124-16a.bin
        idlepc = 0x606104a0
        sparsemem = True
        ghostios = True
        chassis = 3640
    [[ROUTER R4]]
        model = 3640
        console = 2003
        aux = 2103
        cnfg = BGPAdvanced_configs\R4.cfg
        slot0 = NM-1FE-TX
        f0/0 = R2 f1/0
        slot1 = NM-1FE-TX
        f1/0 = R3 f1/0
        slot2 = NM-1FE-TX
        f2/0 = R5 f0/0
        slot3 = NM-1FE-TX
        f3/0 = R6 f0/0
        x = -663.966124859
        y = -37.6654762208
        z = 1.0
        hx = -27.5
        hy = 11.0
    [[ROUTER R1]]
        model = 3640
        console = 2000
        aux = 2104
        cnfg = BGPAdvanced_configs\R1.cfg
        slot0 = NM-1FE-TX
        f0/0 = R2 f0/0
        slot1 = NM-1FE-TX
        f1/0 = R3 f0/0
        x = -662.0
        y = -269.0
        z = 1.0
    [[ROUTER R2]]
        model = 3640
        console = 2001
        aux = 2105
        cnfg = BGPAdvanced_configs\R2.cfg
        slot0 = NM-1FE-TX
        f0/0 = R1 f0/0
        slot1 = NM-1FE-TX
        f1/0 = R4 f0/0
        x = -745.082394569
        y = -143.589357775
        z = 1.0
    [[ROUTER R3]]
        model = 3640
        console = 2002
        aux = 2106
        cnfg = BGPAdvanced_configs\R3.cfg
        slot0 = NM-1FE-TX
        f0/0 = R1 f1/0
        slot1 = NM-1FE-TX
        f1/0 = R4 f1/0
        x = -584.544768622
        y = -148.346717088
        z = 1.0
[localhost:7201]
    workingdir = C:\Users\ActionMystique\Documents\Missions\GNS3\Temp
    udp = 10200
    [[3640]]
        image = C:\Users\ActionMystique\Documents\Missions\IOS\Binaries\c3640-jk9o3s-mz.124-16a.bin
        idlepc = 0x606104a0
        sparsemem = True
        ghostios = True
        chassis = 3640
    [[ROUTER R5]]
        model = 3640
        console = 2004
        aux = 2107
        cnfg = BGPAdvanced_configs\R5.cfg
        slot0 = NM-1FE-TX
        f0/0 = R4 f2/0
        slot1 = NM-1FE-TX
        f1/0 = R8 f1/0
        slot2 = NM-1FE-TX
        f2/0 = R6 f2/0
        x = -662.0
        y = 75.0
        z = 1.0
        hx = -24.5
        hy = 10.0
    [[ROUTER R6]]
        model = 3640
        console = 2005
        aux = 2108
        cnfg = BGPAdvanced_configs\R6.cfg
        slot0 = NM-1FE-TX
        f0/0 = R4 f3/0
        slot1 = NM-1FE-TX
        f1/0 = R7 f0/0
        slot2 = NM-1FE-TX
        f2/0 = R5 f2/0
        x = -470.0
        y = -8.0
        z = 1.0
    [[ROUTER R7]]
        model = 3640
        console = 2006
        aux = 2109
        cnfg = BGPAdvanced_configs\R7.cfg
        slot0 = NM-1FE-TX
        f0/0 = R6 f1/0
        slot1 = NM-1FE-TX
        f1/0 = R11 f0/0
        x = -336.0
        y = -7.0
        z = 1.0
    [[ROUTER R8]]
        model = 3640
        console = 2007
        aux = 2110
        cnfg = BGPAdvanced_configs\R8.cfg
        slot0 = NM-1FE-TX
        f0/0 = R9 f1/0
        slot1 = NM-1FE-TX
        f1/0 = R5 f1/0
        x = -716.0
        y = 168.0
        z = 1.0
        hx = -25.5
        hy = 11.0
[GNS3-DATA]
    configs = BGPAdvanced_configs
    [[NOTE 1]]
        text = "OSPF NSSA\nArea 20"
        x = -627.0
        y = 194.0
        color = "#1a1a1a"
    [[NOTE 2]]
        text = "EIGRP"
        x = -392.0
        y = 39.0
        color = "#1a1a1a"
    [[NOTE 3]]
        text = "OSPF\nBackbone"
        x = -401.0
        y = 239.0
        color = "#1a1a1a"
    [[NOTE 4]]
        text = "AS300"
        x = -563.0
        y = -71.0
        color = "#1a1a1a"
    [[NOTE 5]]
        text = "OSPF\nBackbone"
        x = -742.0
        y = 34.0
        color = "#1a1a1a"
    [[NOTE 6]]
        text = "AS100"
        x = -551.0
        y = -109.0
        color = "#1a1a1a"
    [[NOTE 7]]
        text = "AS10"
        x = -557.0
        y = 104.0
        color = "#1a1a1a"
    [[NOTE 8]]
        text = "RIP"
        x = -644.0
        y = -179.0
        color = "#1a1a1a"
    [[NOTE 9]]
        text = "AS20"
        x = -557.0
        y = 149.0
        color = "#1a1a1a"
    [[NOTE 10]]
        text = "AS400"
        x = -478.0
        y = 152.0
        color = "#1a1a1a"
    [[NOTE 11]]
        text = "AS200"
        x = -482.0
        y = 106.0
        color = "#1a1a1a"
    [[SHAPE 1]]
        type = rectangle
        x = -759.0
        y = -296.0
        width = 260.0
        height = 209.0
        fill_color = "#aaff7f"
        z = -2.0
    [[SHAPE 2]]
        type = rectangle
        x = -491.0
        y = -75.0
        width = 264.0
        height = 210.0
        fill_color = "#ffaa7f"
        z = -2.0
    [[SHAPE 3]]
        type = rectangle
        x = -487.0
        y = 147.0
        width = 258.0
        height = 206.0
        fill_color = "#aaffff"
        z = -2.0
    [[SHAPE 4]]
        type = rectangle
        x = -747.0
        y = -44.0
        width = 238.0
        height = 176.0
        fill_color = "#ffaaff"
        z = -2.0
    [[SHAPE 5]]
        type = rectangle
        x = -745.0
        y = 144.0
        width = 236.0
        height = 193.0
        fill_color = "#ffaaff"
        z = -2.0
    [[SHAPE 6]]
        type = rectangle
        x = -757.0
        y = -74.0
        width = 257.0
        height = 429.0
        fill_color = "#ffff7f"
        z = -4.0
