autostart = False
version = 0.8.2
[127.0.0.1:7200]
    workingdir = C:\Users\ActionMystique\Documents\Missions\GNS3\Temp
    udp = 10000
    [[3725]]
        image = C:\Users\ActionMystique\Documents\Missions\IOS\Binaries\c3725-adventerprisek9-mz.124-15.T5.image
        ram = 128
        idlepc = 0x6148b594
        sparsemem = True
        ghostios = True
    [[ROUTER R4]]
        model = 3725
        console = 2024
        aux = 2100
        cnfg = configs\R4.cfg
        wic0/0 = WIC-2T
        s0/0 = R3 s0/2
        slot1 = NM-1FE-TX
        slot2 = NM-1FE-TX
        x = 131.0
        y = -120.0
        z = 1.0
    [[ROUTER R1]]
        model = 3725
        console = 2021
        aux = 2101
        cnfg = configs\R1.cfg
        wic0/0 = WIC-2T
        s0/0 = R2 s0/0
        slot1 = NM-1FE-TX
        slot2 = NM-1FE-TX
        x = -250.0
        y = -120.0
        z = 1.0
    [[ROUTER R2]]
        model = 3725
        console = 2022
        aux = 2102
        cnfg = configs\R2.cfg
        wic0/0 = WIC-2T
        s0/0 = R1 s0/0
        s0/1 = R3 s0/1
        slot1 = NM-1FE-TX
        slot2 = NM-1FE-TX
        x = -249.0
        y = -429.0
        z = 1.0
    [[ROUTER R3]]
        model = 3725
        console = 2023
        aux = 2103
        cnfg = configs\R3.cfg
        wic0/0 = WIC-2T
        wic0/1 = WIC-2T
        s0/1 = R2 s0/1
        s0/2 = R4 s0/0
        slot1 = NM-1FE-TX
        slot2 = NM-1FE-TX
        x = 132.0
        y = -427.0
        z = 1.0
[GNS3-DATA]
    configs = configs
    width = 5000
    height = 2500
    [[NOTE 1]]
        text = 172.16.23.0/24
        x = -80.0
        y = -444.5
    [[NOTE 2]]
        text = Lo0: 172.16.2.1/24
        x = -434.0
        y = -418.5
    [[NOTE 3]]
        text = s0/1\nDCE\n.2
        x = -170.0
        y = -447.5
    [[NOTE 4]]
        text = s0/0\n.2
        x = -211.0
        y = -352.5
    [[NOTE 5]]
        text = 172.16.12.0/24
        x = -351.0
        y = -266.5
    [[NOTE 6]]
        text = s0/0\nDCE\n.1
        x = -207.0
        y = -183.5
    [[NOTE 7]]
        text = Lo0: 172.16.1.1/24
        x = -434.0
        y = -109.5
    [[NOTE 8]]
        text = s0/1\n.3
        x = 77.0
        y = -424.5
    [[NOTE 9]]
        text = lo0: 172.16.3.1/27\nLo1: 172.16.3.33/27\nLo2: 172.16.3.65/27\nLo3: 172.16.3.97/27
        x = 253.0
        y = -441.5
    [[NOTE 10]]
        text = s0/0\n.4
        x = 109.0
        y = -172.5
    [[NOTE 11]]
        text = Lo0: 172.16.4.1/27\nLo1: 172.16.4.33/27\nLo2: 172.16.4.65/27\nLo3: 172.16.4.97/27
        x = 249.0
        y = -133.5
    [[NOTE 12]]
        text = s0/2\nDCE\n.3
        x = 123.0
        y = -360.5
    [[NOTE 13]]
        text = 172.16.34.0/24
        x = 184.0
        y = -269.5
    [[SHAPE 1]]
        type = ellipse
        x = 195.0
        y = -414.0
        width = 39.0
        height = 21.0
        border_style = 2
        z = -2.0
    [[SHAPE 2]]
        type = ellipse
        x = -288.0
        y = -107.0
        width = 39.0
        height = 21.0
        border_style = 2
        z = -2.0
    [[SHAPE 3]]
        type = ellipse
        x = 194.0
        y = -108.0
        width = 39.0
        height = 21.0
        border_style = 2
        z = -2.0
    [[SHAPE 4]]
        type = ellipse
        x = -287.0
        y = -417.0
        width = 39.0
        height = 21.0
        border_style = 2
        z = -2.0
