Sep 05 16:43:04.963 HYPERVISOR: Release 0.2.16-amd64/Linux (tag 2015060118)
Sep 05 16:43:04.963 HYPERVISOR: Started on IP = 127.0.0.1, TCP port = 52507.
Sep 05 16:43:04.967 HYPERVISOR: exec_cmd: hypervisor version 
Sep 05 16:43:04.967 HYPERVISOR: exec_cmd: hypervisor working_dir /media/actionmystique/SAMSUNG-850-Ext4/Labs/GNS3/CCNP/TBSHOOT/Infrastructure-Services/Device-Management/Telnet-SSH/Jean-Christophe_Manciot/1+/TT 3-linux/project-files/dynamips 
Sep 05 16:43:04.967 GENERAL: working_dir=/media/actionmystique/SAMSUNG-850-Ext4/Labs/GNS3/CCNP/TBSHOOT/Infrastructure-Services/Device-Management/Telnet-SSH/Jean-Christophe_Manciot/1+/TT 3-linux/project-files/dynamips
Sep 05 16:43:04.967 HYPERVISOR: exec_cmd: vm create ESW1 1 c3725 
Sep 05 16:43:04.967 VM: VM ESW1 created.
Sep 05 16:43:04.968 HYPERVISOR: exec_cmd: vm set_con_tcp_port ESW1 2004 
Sep 05 16:43:04.968 HYPERVISOR: exec_cmd: c3725 get_mac_addr ESW1 
Sep 05 16:43:04.968 HYPERVISOR: exec_cmd: c3725 set_mac_addr ESW1 c201.1a63.0000 
Sep 05 16:43:04.969 HYPERVISOR: exec_cmd: vm set_ios ESW1 /media/actionmystique/SAMSUNG-850-Ext4/Images/GNS3/IOS/c3725-adventerprisek9-mz.124-15.T10.image 
Sep 05 16:43:04.969 HYPERVISOR: exec_cmd: vm get_status ESW1 
Sep 05 16:43:04.969 HYPERVISOR: exec_cmd: vm slot_add_binding ESW1 1 0 NM-16ESW 
Sep 05 16:43:04.970 HYPERVISOR: exec_cmd: vm set_disk0 ESW1 1 
Sep 05 16:43:04.970 HYPERVISOR: exec_cmd: vm set_nvram ESW1 256 
Sep 05 16:43:04.971 HYPERVISOR: exec_cmd: vm slot_add_binding ESW1 0 16 WIC-2T 
Sep 05 16:43:04.971 HYPERVISOR: exec_cmd: vm get_status ESW1 
Sep 05 16:43:04.971 HYPERVISOR: exec_cmd: vm set_idle_pc ESW1 0x614ac27c 
Sep 05 16:43:04.972 HYPERVISOR: exec_cmd: vm set_config ESW1 configs/i1_startup-config.cfg 
Sep 05 16:43:04.972 HYPERVISOR: exec_cmd: vm set_config ESW1 configs/i1_startup-config.cfg configs/i1_private-config.cfg 
Sep 05 16:43:05.033 HYPERVISOR: exec_cmd: nio create_tap tap-0742e8e0-fb38-46cc-8d2c-2a531df87b99 tap0 
Sep 05 16:43:05.035 HYPERVISOR: exec_cmd: vm slot_add_nio_binding ESW1 1 1 tap-0742e8e0-fb38-46cc-8d2c-2a531df87b99 
Sep 05 16:43:05.036 HYPERVISOR: exec_cmd: vm get_status ESW1 
Sep 05 16:43:05.075 HYPERVISOR: exec_cmd: nio create_udp udp-7f02a5df-0362-4be0-8051-273d4be8f054 15004 127.0.0.1 15005 
Sep 05 16:43:05.081 HYPERVISOR: exec_cmd: vm slot_add_nio_binding ESW1 1 0 udp-7f02a5df-0362-4be0-8051-273d4be8f054 
Sep 05 16:43:05.081 HYPERVISOR: exec_cmd: vm get_status ESW1 
Sep 05 16:43:05.958 HYPERVISOR: exec_cmd: vm create Ghost 0 c3725 
Sep 05 16:43:05.958 VM: VM Ghost created.
Sep 05 16:43:05.961 HYPERVISOR: exec_cmd: vm set_ios Ghost /media/actionmystique/SAMSUNG-850-Ext4/Images/GNS3/IOS/c3725-adventerprisek9-mz.124-15.T10.image 
Sep 05 16:43:05.961 HYPERVISOR: exec_cmd: vm set_ghost_status Ghost 1 
Sep 05 16:43:05.962 HYPERVISOR: exec_cmd: vm set_ghost_file Ghost c3725-adventerprisek9-mz.124-15.T10.image-128.ghost 
Sep 05 16:43:05.962 HYPERVISOR: exec_cmd: vm get_status Ghost 
Sep 05 16:43:05.963 HYPERVISOR: exec_cmd: vm start Ghost 
Sep 05 16:43:06.248 HYPERVISOR: exec_cmd: vm get_status Ghost 
Sep 05 16:43:06.249 HYPERVISOR: exec_cmd: vm stop Ghost 
Sep 05 16:43:06.402 VM: VM Ghost shutdown.
Sep 05 16:43:06.403 HYPERVISOR: exec_cmd: vm clean_delete Ghost 
Sep 05 16:43:06.403 VM: VM Ghost destroyed.
Sep 05 16:43:06.404 HYPERVISOR: exec_cmd: vm set_ghost_status ESW1 2 
Sep 05 16:43:06.406 HYPERVISOR: exec_cmd: vm set_ghost_file ESW1 c3725-adventerprisek9-mz.124-15.T10.image-128.ghost 
Sep 05 16:43:06.407 HYPERVISOR: exec_cmd: vm get_status ESW1 
Sep 05 16:43:06.408 HYPERVISOR: exec_cmd: vm start ESW1 
Sep 05 16:52:01.432 HYPERVISOR: exec_cmd: vm extract_config ESW1 
Sep 05 16:52:04.896 HYPERVISOR: exec_cmd: vm get_status ESW1 
Sep 05 16:52:04.897 HYPERVISOR: exec_cmd: vm stop ESW1 
Sep 05 16:52:04.948 VM: VM ESW1 shutdown.
Sep 05 16:52:04.949 HYPERVISOR: exec_cmd: vm extract_config ESW1 
Sep 05 16:52:10.513 HYPERVISOR: exec_cmd: vm get_status ESW1 
Sep 05 16:52:10.514 HYPERVISOR: exec_cmd: vm extract_config ESW1 
Sep 05 16:52:10.515 HYPERVISOR: exec_cmd: vm delete ESW1 
Sep 05 16:52:10.515 VM: VM ESW1 destroyed.
Sep 05 16:52:10.515 HYPERVISOR: exec_cmd: hypervisor stop 
Sep 05 16:52:10.907 HYPERVISOR: Stopped.
Sep 05 16:52:10.907 GENERAL: reset done.
