!
!

kerberos password 
crypto RSA-key-pair %h.mydomain.com 0 1014940935
 30820155 02010030 0D06092A 864886F7 0D010101 05000482 013F3082 013B0201 
 00024100 A7EA2920 73033037 689F8166 B6AEA7FF 91015466 7379FA4F D7B175C3 
 8D5D1E56 89B00E73 D5553491 06D651DA 71213D18 3E4EAF44 8C5F05F1 E8C1FE47 
 B07D5A1B 02030100 01024049 FE964106 6DD14199 8930ACE2 B3F4B45A 620B9F5A 
 23D67A78 C26AF2D1 C8C72504 987ADD3E 2755DCC4 70AADB86 679171D7 54A9038F 
 0EB080E7 8B514EB8 8A038102 2100D588 DF0A6D31 AEF5C231 5A4A3459 5D3FD973 
 F1A13EA8 2C25D210 6ACD4733 39AF0221 00C94EC2 9428B371 2599E7EA 8C89E86C 
 E188F689 3AFCFE7A 59B42810 E83DABBD 55022100 944FB792 D75ACDC9 96328F22 
 C10F5CAC 2F4DCF83 0E30E250 F6813E9D 0B99F1B3 02204863 D126D428 0B05197E 
 4362FC68 9F56CF18 D0AA6CB5 DA2B8DD4 66980D2D 47ED0221 00991914 B6CDC66E 
 60AF0332 D5FB2771 B9F0317B 886E6E48 B86CDFDF 3FC1D48E CA
 quit
 305C300D 06092A86 4886F70D 01010105 00034B00 30480241 00A7EA29 20730330 
 37689F81 66B6AEA7 FF910154 667379FA 4FD7B175 C38D5D1E 5689B00E 73D55534 
 9106D651 DA71213D 183E4EAF 448C5F05 F1E8C1FE 47B07D5A 1B020301 0001
 quit
end
