autostart = False
version = 0.8.7
[127.0.0.1:7202]
    workingdir = /tmp
    udp = 10200
    [[7200]]
        image = c7200-adventerprisek9-mz.152-4.M2.image
        ram = 512
        idlepc = 0x60188e14
        sparsemem = True
        ghostios = True
    [[ROUTER ABR2]]
        console = 2005
        aux = 2105
        cnfg = configs/ABR2.cfg
        slot0 = C7200-IO-GE-E
        g0/0 = ABR1 g0/0
        slot1 = PA-8T
        s1/0 = FR1 2
        slot2 = PA-2FE-TX
        f2/0 = BR8 f1/1
        f2/1 = BR7 f1/1
        x = 163.585786438
        y = 129.343145751
        z = 1.0
        hx = 7.25735931288
        hy = 41.4680374315
    [[ROUTER ASBR5]]
        console = 2003
        aux = 2100
        cnfg = configs/ASBR5.cfg
        slot0 = C7200-IO-GE-E
        g0/0 = ISP3 g0/0
        slot1 = PA-8T
        s1/0 = FR1 5
        x = 83.1715728753
        y = 285.414213562
        z = 1.0
        hx = 58.4116882454
        hy = -2.37258300205
[127.0.0.1:7203]
    workingdir = /tmp
    udp = 10300
    [[7200]]
        image = c7200-adventerprisek9-mz.152-4.M2.image
        ram = 512
        idlepc = 0x60188e14
        sparsemem = True
        ghostios = True
    [[ROUTER BR8]]
        console = 2011
        aux = 2511
        cnfg = configs/BR8.cfg
        slot0 = C7200-IO-GE-E
        g0/0 = BR7 g0/0
        slot1 = PA-2FE-TX
        f1/0 = ABR1 f2/1
        f1/1 = ABR2 f2/0
        slot2 = PA-2FE-TX
        f2/0 = SW1 f1/5
        f2/1 = ABR15 f1/0
        x = 368.636651714
        y = 130.735064736
        z = 1.0
        hx = 15.0857864376
        hy = 37.2253967444
    [[ROUTER BR7]]
        console = 2010
        aux = 2510
        cnfg = configs/BR7.cfg
        slot0 = C7200-IO-GE-E
        g0/0 = BR8 g0/0
        slot1 = PA-2FE-TX
        f1/0 = ABR1 f2/0
        f1/1 = ABR2 f2/1
        slot2 = PA-2FE-TX
        f2/0 = SW1 f1/3
        x = 364.394011027
        y = -166.249783362
        z = 1.0
[127.0.0.1:7200]
    workingdir = /tmp
    udp = 10000
    [[7200]]
        image = c7200-adventerprisek9-mz.152-4.M2.image
        ram = 512
        idlepc = 0x60188e14
        sparsemem = True
        ghostios = True
    [[ROUTER ABR1]]
        console = 2000
        aux = 2110
        cnfg = configs/ABR1.cfg
        slot0 = C7200-IO-GE-E
        g0/0 = ABR2 g0/0
        slot1 = PA-8T
        s1/0 = FR1 1
        slot2 = PA-2FE-TX
        f2/0 = BR7 f1/0
        f2/1 = BR8 f1/0
        slot3 = PA-2FE-TX
        f3/0 = SW1 f1/2
        x = 164.0
        y = -164.0
        z = 1.0
        hx = 1.60050506339
        hy = -22.1715728753
    [[FRSW FR1]]
        1:103 = 3:301
        1:104 = 4:401
        1:105 = 5:501
        2:203 = 3:302
        2:204 = 4:402
        2:205 = 5:502
        3:301 = 1:103
        3:302 = 2:203
        4:401 = 1:104
        4:402 = 2:204
        5:501 = 1:105
        5:502 = 2:205
        1 = ABR1 s1/0
        2 = ABR2 s1/0
        3 = ASBR3 s1/0
        4 = ASBR4 s1/0
        5 = ASBR5 s1/0
        x = -19.5
        y = -22.5
        z = 1.0
[127.0.0.1:7201]
    workingdir = /tmp
    udp = 10100
    [[7200]]
        image = c7200-adventerprisek9-mz.152-4.M2.image
        ram = 512
        idlepc = 0x60188e14
        sparsemem = True
        ghostios = True
    [[ROUTER ASBR3]]
        console = 2001
        aux = 2102
        cnfg = configs/ASBR3.cfg
        slot0 = C7200-IO-GE-E
        g0/0 = ASBR4 g0/0
        slot1 = PA-8T
        s1/0 = FR1 3
        slot2 = PA-GE
        g2/0 = ISP2 g0/0
        x = -264.017243943
        y = -154.970562748
        z = 1.0
        hx = 35.5
        hy = 39.0
    [[ROUTER ASBR4]]
        console = 2002
        aux = 2103
        cnfg = configs/ASBR4.cfg
        slot0 = C7200-IO-GE-E
        g0/0 = ASBR3 g0/0
        slot1 = PA-8T
        s1/0 = FR1 4
        slot2 = PA-GE
        g2/0 = ISP2 g1/0
        x = -257.946176131
        y = 132.007142675
        z = 1.0
        hx = 14.5710678119
        hy = 38.6396103067
[127.0.0.1:7206]
    workingdir = /tmp
    udp = 10600
    [[7200]]
        image = c7200-adventerprisek9-mz.152-4.M2.image
        ram = 512
        idlepc = 0x60188e14
        sparsemem = True
        ghostios = True
    [[ROUTER ABR15]]
        console = 2025
        aux = 2525
        cnfg = configs/ABR15.cfg
        slot0 = C7200-IO-GE-E
        g0/0 = ASBR16 g0/0
        slot1 = PA-2FE-TX
        f1/0 = BR8 f2/1
        slot2 = PA-2FE-TX
        slot3 = PA-GE
        x = 381.0
        y = 320.0
        z = 1.0
        hx = 7.5
        hy = 41.4680374315
    [[ROUTER ABR14]]
        console = 2024
        aux = 2524
        cnfg = configs/ABR14.cfg
        slot0 = C7200-IO-GE-E
        g0/0 = IR18 g0/0
        slot1 = PA-2FE-TX
        f1/0 = SW1 f1/6
        slot2 = PA-2FE-TX
        x = 557.0
        y = 212.0
        z = 1.0
        hx = 23.0563491861
        hy = -20.7573593129
[127.0.0.1:7207]
    workingdir = /tmp
    udp = 10700
    [[7200]]
        image = c7200-adventerprisek9-mz.152-4.M2.image
        ram = 512
        idlepc = 0x60188e14
        sparsemem = True
        ghostios = True
    [[ROUTER ISP2]]
        console = 2013
        aux = 2513
        cnfg = configs/ISP2.cfg
        slot0 = C7200-IO-GE-E
        g0/0 = ASBR3 g2/0
        slot1 = PA-GE
        g1/0 = ASBR4 g2/0
        slot2 = PA-POS-OC3
        p2/0 = ISP1 p1/0
        slot3 = PA-POS-OC3
        p3/0 = ISP3 p2/0
        x = -423.0
        y = 50.0
        z = 1.0
    [[ROUTER ISP3]]
        console = 2014
        aux = 2514
        cnfg = configs/ISP3.cfg
        slot0 = C7200-IO-GE-E
        g0/0 = ASBR5 g0/0
        slot1 = PA-POS-OC3
        p1/0 = ISP1 p2/0
        slot2 = PA-POS-OC3
        p2/0 = ISP2 p3/0
        slot3 = PA-GE
        g3/0 = ASBR16 g1/0
        x = -223.0
        y = 346.0
        z = 1.0
[127.0.0.1:7204]
    workingdir = /tmp
    udp = 10400
    [[3725]]
        image = /home/actionmystique/Google Drive/Missions/Certifications/Cisco/IOS/Binaries/c3725-adventerprisek9-mz.124-15.T10.image
        ram = 256
        idlepc = 0x6026b804
        sparsemem = True
    [[ROUTER SW1]]
        model = 3725
        console = 2009
        aux = 2509
        cnfg = configs/SW1.cfg
        slot1 = NM-16ESW
        f1/2 = ABR1 f3/0
        f1/3 = BR7 f2/0
        f1/4 = ABR9 f1/0
        f1/5 = BR8 f2/0
        f1/6 = ABR14 f1/0
        symbol = EtherSwitch router
        x = 482.202668892
        y = -17.8431457502
        z = 1.0
[127.0.0.1:7205]
    workingdir = /tmp
    udp = 10500
    [[7200]]
        image = c7200-adventerprisek9-mz.152-4.M2.image
        ram = 512
        idlepc = 0x60188e14
        sparsemem = True
        ghostios = True
    [[ROUTER ABR9]]
        console = 2012
        aux = 2512
        cnfg = configs/ABR9.cfg
        slot0 = C7200-IO-GE-E
        g0/0 = IR17 g0/0
        slot1 = PA-2FE-TX
        f1/0 = SW1 f1/4
        slot2 = PA-2FE-TX
        slot3 = PA-2FE-TX
        slot4 = PA-2FE-TX
        x = 617.052957318
        y = 2.8284271247
        z = 1.0
        hx = -6.37005768509
        hy = -22.1715728752
[127.0.0.1:7208]
    workingdir = /tmp
    udp = 10800
    [[7200]]
        image = c7200-adventerprisek9-mz.152-4.M2.image
        ram = 512
        idlepc = 0x60188e14
        sparsemem = True
        ghostios = True
    [[ROUTER ASBR16]]
        console = 2026
        aux = 2526
        cnfg = configs/ASBR16.cfg
        slot0 = C7200-IO-GE-E
        g0/0 = ABR15 g0/0
        slot1 = PA-GE
        g1/0 = ISP3 g3/0
        x = -0.74725804499
        y = 403.230447378
        z = 1.0
        hx = 1.77207793864
        hy = -21.9461761308
    [[ROUTER ISP1]]
        console = 2015
        aux = 2515
        cnfg = configs/ISP1.cfg
        slot0 = C7200-IO-GE-E
        slot1 = PA-POS-OC3
        p1/0 = ISP2 p2/0
        slot2 = PA-POS-OC3
        p2/0 = ISP3 p1/0
        x = -537.0
        y = 216.0
        z = 1.0
[127.0.0.1:7209]
    workingdir = /tmp
    udp = 10900
    [[7200]]
        image = c7200-adventerprisek9-mz.152-4.M2.image
        ram = 512
        idlepc = 0x60188e14
        sparsemem = True
        ghostios = True
    [[ROUTER IR18]]
        console = 2017
        aux = 2517
        cnfg = configs/IR18.cfg
        slot0 = C7200-IO-GE-E
        g0/0 = ABR14 g0/0
        x = 673.242640687
        y = 347.071067812
        z = 1.0
    [[ROUTER IR17]]
        console = 2018
        aux = 2518
        cnfg = configs/IR17.cfg
        slot0 = C7200-IO-GE-E
        g0/0 = ABR9 g0/0
        x = 865.786796564
        y = 58.201010127
        z = 1.0
[GNS3-DATA]
    configs = configs
    [[NOTE 1]]
        text = "27.2/24"
        x = 228.414213562
        y = 108.656854249
    [[NOTE 2]]
        text = "78.7/24"
        x = 368.421356237
        y = -100.119841048
    [[NOTE 3]]
        text = "--"
        x = 408.171572875
        y = 417.585786438
    [[NOTE 4]]
        text = "MD5 Athentication"
        x = 639.81031663
        y = 178.694659665
    [[NOTE 5]]
        text = "OSPF Totally Stubby Area 14"
        x = 580.284271247
        y = 407.458802717
        font = "MS Shell Dlg 2,12,-1,5,75,0,0,0,0,0"
        color = "#0055ff"
    [[NOTE 6]]
        text = "24.2/29"
        x = -358.409162929
        y = 70.9726547893
    [[NOTE 7]]
        text = "|"
        x = 709.007755419
        y = 1.5700217914
    [[NOTE 8]]
        text = "27.7/24"
        x = 307.610173055
        y = -116.889393669
    [[NOTE 9]]
        text = "15.5/29"
        x = 101.882250994
        y = 240.544155878
    [[NOTE 10]]
        text = "|"
        x = 709.007755419
        y = -1.4299782086
    [[NOTE 11]]
        text = "12.1/24"
        x = 180.556349186
        y = -76.4436508139
    [[NOTE 12]]
        text = "32.3/29"
        x = -279.213203436
        y = 311.597113195
    [[NOTE 13]]
        text = "11.14/24"
        x = 506.771644663
        y = 197.5067094
    [[NOTE 14]]
        text = "OSPF Totally NSSA Area 15"
        x = 170.284271247
        y = 506.873016279
        font = "MS Shell Dlg 2,12,-1,5,75,0,0,0,0,0"
        color = "#0055ff"
    [[NOTE 15]]
        text = "301"
        x = -121.251262658
        y = -98.2132034356
    [[NOTE 16]]
        text = "401"
        x = -145.514718626
        y = 49.7609306503
    [[NOTE 17]]
        text = "|"
        x = 709.007755419
        y = -58.4299782083
    [[NOTE 18]]
        text = "16.5/29"
        x = 102.828427125
        y = 259.213203435
    [[NOTE 19]]
        text = "|"
        x = 1105.94592232
        y = -85.5010460204
    [[NOTE 20]]
        text = "13.1/29"
        x = 110.0
        y = -141.0
    [[NOTE 21]]
        text = "|"
        x = 404.0
        y = 378.0
    [[NOTE 22]]
        text = "13.4/29"
        x = -191.703535444
        y = 123.308657865
    [[NOTE 23]]
        text = "165.16/27"
        x = 67.0264786586
        y = 417.3860018
    [[NOTE 24]]
        text = "Filtering, Summarization and Default Routes"
        x = -166.87720036
        y = -422.322943214
        font = "MS Shell Dlg 2,20,-1,5,75,0,0,0,0,0"
        color = "#0000ff"
    [[NOTE 25]]
        text = "iBGP"
        x = -401.099638511
        y = 184.166522241
        font = "MS Shell Dlg 2,12,-1,5,75,0,0,0,0,0"
        color = "#0055ff"
    [[NOTE 26]]
        text = "+ Summarized in AS 1"
        x = -535.14805281
        y = -233.568542495
        font = "MS Shell Dlg 2,12,-1,5,75,0,0,0,0,0"
    [[NOTE 27]]
        text = "23.2/29"
        x = -364.066017178
        y = 32.989898732
    [[NOTE 28]]
        text = "501"
        x = 27.4335495461
        y = 160.066017178
    [[NOTE 29]]
        text = "13.1/29"
        x = -508.31580054
        y = 259.67323164
    [[NOTE 30]]
        text = "130.0/24*"
        x = 421.997041406
        y = 398.27416998
    [[NOTE 31]]
        text = "10.14.0.0/16"
        x = 647.609306503
        y = 158.31580054
        font = "MS Shell Dlg 2,12,-1,5,75,0,0,0,0,0"
    [[NOTE 32]]
        text = "204"
        x = 83.0
        y = 60.0
    [[NOTE 33]]
        text = "--"
        x = 713.250396106
        y = -98.2289680823
    [[NOTE 34]]
        text = "11.1/24"
        x = 235.242640687
        y = -135.845671067
    [[NOTE 35]]
        text = "12.2/24"
        x = 187.970562748
        y = 82.1715728753
    [[NOTE 36]]
        text = "128.0/23*"
        x = 421.997041406
        y = 378.27416998
    [[NOTE 37]]
        text = "24.4/29"
        x = -317.154328933
        y = 137.825468532
    [[NOTE 38]]
        text = "OSPF NSSA Area 5"
        x = 19.6396103067
        y = -341.126983721
        font = "MS Shell Dlg 2,12,-1,5,75,0,0,0,0,0"
        color = "#0055ff"
    [[NOTE 39]]
        text = "10.11.0.0/16"
        x = -88.2792206136
        y = -277.457936164
        font = "MS Shell Dlg 2,12,-1,5,75,0,0,0,0,0"
    [[NOTE 40]]
        text = "302"
        x = -134.564971157
        y = -58.5355339059
    [[NOTE 41]]
        text = "37.12.0.0/16 +"
        x = -300.381817718
        y = -236.261976671
        font = "MS Shell Dlg 2,12,-1,5,75,0,0,0,0,0"
    [[NOTE 42]]
        text = "104"
        x = 62.0
        y = -74.0
    [[NOTE 43]]
        text = "35.0/25*"
        x = 727.582827844
        y = -57.8974028953
    [[NOTE 44]]
        text = "--"
        x = 713.250396106
        y = -58.2289680819
    [[NOTE 45]]
        text = "MD5 Athentication"
        x = 26.0416305605
        y = -291.794805791
    [[NOTE 46]]
        text = "131.32/27*"
        x = 421.997041406
        y = 437.445742855
    [[NOTE 47]]
        text = "28.2/24"
        x = 227.0
        y = 158.0
    [[NOTE 48]]
        text = "203"
        x = 83.0
        y = 42.0
    [[NOTE 49]]
        text = "12.2/30"
        x = -475.788888606
        y = 87.5411972842
    [[NOTE 50]]
        text = "|"
        x = 709.007755419
        y = -38.4299782086
    [[NOTE 51]]
        text = "AS 1"
        x = 72.6000717881
        y = 325.210244842
        font = "MS Shell Dlg 2,12,-1,5,75,0,0,0,0,0"
    [[NOTE 52]]
        text = "11.11/24"
        x = 414.847763109
        y = -0.282179206261
    [[NOTE 53]]
        text = "179.17/27"
        x = 785.898628384
        y = 65.109739779
    [[NOTE 54]]
        text = "13.2/29"
        x = 111.0
        y = 108.0
    [[NOTE 55]]
        text = "|"
        x = 709.007755419
        y = 18.5700217914
    [[NOTE 56]]
        text = "--"
        x = 408.171572875
        y = 377.585786438
    [[NOTE 57]]
        text = "- Filtered in Areas 34/5 and on BR7"
        x = 821.144840409
        y = -22.4472221513
        font = "MS Shell Dlg 2,12,-1,5,75,0,0,0,0,0"
    [[NOTE 58]]
        text = "Prefix list"
        x = 1091.8037867
        y = -106.915259582
    [[NOTE 59]]
        text = "--"
        x = 693.0
        y = 203.0
    [[NOTE 60]]
        text = "32.0/23*"
        x = 725.4615075
        y = -97.8974028953
    [[NOTE 61]]
        text = "18.1/24"
        x = 202.715728753
        y = -105.443650814
    [[NOTE 62]]
        text = "eBGP"
        x = -357.203102168
        y = -47.5248198939
        font = "MS Shell Dlg 2,12,-1,5,75,0,0,0,0,0"
        color = "#0055ff"
    [[NOTE 63]]
        text = "5.5/27"
        x = 77.5269119345
        y = 355.689862839
    [[NOTE 64]]
        text = "35.3/29"
        x = -156.419264197
        y = 331.722004875
    [[NOTE 65]]
        text = "Try to filter Area 14 subnets into \nArea 13 with "area filter-list" command"
        x = 757.948880916
        y = 112.221825407
        font = "MS Shell Dlg 2,12,-1,5,75,0,0,0,0,0"
    [[NOTE 66]]
        text = "11.9/24"
        x = 562.653895656
        y = 36.2863632884
    [[NOTE 67]]
        text = "13.3/29"
        x = -195.774603256
        y = -139.142135624
    [[NOTE 68]]
        text = "184.18/27"
        x = 603.180807591
        y = 341.337228565
    [[NOTE 69]]
        text = "158.8/24"
        x = 409.190908859
        y = 184.577777211
    [[NOTE 70]]
        text = "|"
        x = 404.0
        y = 418.0
    [[NOTE 71]]
        text = "|"
        x = 404.0
        y = 438.0
    [[NOTE 72]]
        text = "Injects Default route"
        x = 153.470129473
        y = 298.423448278
    [[NOTE 73]]
        text = "103"
        x = 62.0
        y = -91.0
    [[NOTE 74]]
        text = "|"
        x = 687.307791313
        y = 260.97265479
    [[NOTE 75]]
        text = "AS 12"
        x = -261.154328932
        y = -269.570634536
        font = "MS Shell Dlg 2,12,-1,5,75,0,0,0,0,0"
    [[NOTE 76]]
        text = "-- Filtered in Area 5 and on BR7"
        x = 814.073772597
        y = -1.43502884254
        font = "MS Shell Dlg 2,12,-1,5,75,0,0,0,0,0"
    [[NOTE 77]]
        text = "--"
        x = 713.250396106
        y = -38.2289680819
    [[NOTE 78]]
        text = "|"
        x = 687.307791313
        y = 223.97265479
    [[NOTE 79]]
        text = "* Summarized in Areas 0/5"
        x = 819.730626847
        y = -49.7193000902
        font = "MS Shell Dlg 2,12,-1,5,75,0,0,0,0,0"
    [[NOTE 80]]
        text = "10.10.34.3/24"
        x = -255.407070888
        y = -84.514718626
    [[NOTE 81]]
        text = "--"
        x = 693.0
        y = 263.0
    [[NOTE 82]]
        text = "eBGP"
        x = -53.2031021677
        y = 334.475180106
        font = "MS Shell Dlg 2,12,-1,5,75,0,0,0,0,0"
        color = "#0055ff"
    [[NOTE 83]]
        text = "eBGP"
        x = -310.960461481
        y = 91.6467529813
        font = "MS Shell Dlg 2,12,-1,5,75,0,0,0,0,0"
        color = "#0055ff"
    [[NOTE 84]]
        text = "|"
        x = 1044.59058327
        y = 19.7781745931
    [[NOTE 85]]
        text = "MD5 Athentication"
        x = 845.457069612
        y = -132.356205611
    [[NOTE 86]]
        text = "158.15/24"
        x = 380.906637611
        y = 296.099638511
    [[NOTE 87]]
        text = "--"
        x = 713.250396106
        y = 1.7710319181
    [[NOTE 88]]
        text = "67.0/28*"
        x = 708.997041406
        y = 243.27416998
    [[NOTE 89]]
        text = "--"
        x = 713.250396106
        y = -18.2289680819
    [[NOTE 90]]
        text = "15.1/29"
        x = 123.0
        y = -108.0
    [[NOTE 91]]
        text = "^"
        x = 1104.53170876
        y = -92.5721138324
    [[NOTE 92]]
        text = "12.1/30"
        x = -533.771644663
        y = 173.607214462
    [[NOTE 93]]
        text = "105"
        x = 64.0
        y = -55.0
    [[NOTE 94]]
        text = "|"
        x = 404.0
        y = 358.0
    [[NOTE 95]]
        text = "|"
        x = 1064.93372902
        y = -84.0868324584
    [[NOTE 96]]
        text = "Route Map"
        x = 1016.30631202
        y = 63.4177848998
    [[NOTE 97]]
        text = "MD5 Athentication"
        x = 195.896536344
        y = 329.737156777
    [[NOTE 98]]
        text = "eBGP"
        x = -91.3868683517
        y = 397.913780286
        font = "MS Shell Dlg 2,12,-1,5,75,0,0,0,0,0"
        color = "#0055ff"
    [[NOTE 99]]
        text = "|"
        x = 404.0
        y = 398.0
    [[NOTE 100]]
        text = "10.9.0.0/16"
        x = 355.109739779
        y = -354.399061661
        font = "MS Shell Dlg 2,12,-1,5,75,0,0,0,0,0"
    [[NOTE 101]]
        text = "35.5/29"
        x = 12.1147904128
        y = 322.50880144
    [[NOTE 102]]
        text = "* Filtered in Area 34 and on SW1/BR8"
        x = 819.730626847
        y = -72.1457069614
        font = "MS Shell Dlg 2,12,-1,5,75,0,0,0,0,0"
    [[NOTE 103]]
        text = "17.7/24"
        x = 307.367532368
        y = -140.088311755
    [[NOTE 104]]
        text = "35.128/25*"
        x = 727.582827844
        y = -37.8974028957
    [[NOTE 105]]
        text = "|"
        x = 709.007755419
        y = -98.4299782083
    [[NOTE 106]]
        text = "64.0/23*"
        x = 708.997041406
        y = 204.27416998
    [[NOTE 107]]
        text = "Injects Default route"
        x = -302.22034611
        y = -173.284271248
    [[NOTE 108]]
        text = "--"
        x = 693.0
        y = 223.0
    [[NOTE 109]]
        text = "|"
        x = 709.007755419
        y = -18.4299782086
    [[NOTE 110]]
        text = "10.10.34.4/24"
        x = -259.791847199
        y = 87.3797256766
    [[NOTE 111]]
        text = "--"
        x = 408.171572875
        y = 437.585786438
    [[NOTE 112]]
        text = "78.8/24"
        x = 368.421356237
        y = 86.3553390584
    [[NOTE 113]]
        text = "OSPF Backbone Area"
        x = 325.269119345
        y = -380.09754647
        font = "MS Shell Dlg 2,12,-1,5,75,0,0,0,0,0"
        color = "#0055ff"
    [[NOTE 114]]
        text = "131.0/27*"
        x = 421.997041406
        y = 418.27416998
    [[NOTE 115]]
        text = "184.14/27"
        x = 593.281312654
        y = 269.41334701
    [[NOTE 116]]
        text = "|"
        x = 1064.93372902
        y = -104.086832458
    [[NOTE 117]]
        text = "13.3/29"
        x = -286.284271248
        y = 354.224530192
    [[NOTE 118]]
        text = "|"
        x = 1064.93372902
        y = -84.0868324584
    [[NOTE 119]]
        text = "34.0/24*"
        x = 726.168614281
        y = -78.6045096764
    [[NOTE 120]]
        text = "--"
        x = 713.250396106
        y = -98.2289680823
    [[NOTE 121]]
        text = "17.1/24"
        x = 231.0
        y = -168.171572876
    [[NOTE 122]]
        text = "|"
        x = 687.307791313
        y = 203.97265479
    [[NOTE 123]]
        text = "OSPF Area 34"
        x = -96.2497833619
        y = -304.156420974
        font = "MS Shell Dlg 2,12,-1,5,75,0,0,0,0,0"
        color = "#0055ff"
    [[NOTE 124]]
        text = "v"
        x = 1044.59058327
        y = 49.6776695296
    [[NOTE 125]]
        text = "11.7/24"
        x = 424.747258045
        y = -127.762409946
    [[NOTE 126]]
        text = "|"
        x = 709.007755419
        y = -38.4299782086
    [[NOTE 127]]
        text = "10.12.0.0/16"
        x = 33.8406204335
        y = -313.428498912
        font = "MS Shell Dlg 2,12,-1,5,75,0,0,0,0,0"
    [[NOTE 128]]
        text = "10.10.0.0/16"
        x = -87.693434176
        y = -258.27416998
        font = "MS Shell Dlg 2,12,-1,5,75,0,0,0,0,0"
    [[NOTE 129]]
        text = "18.8/24"
        x = 321.509667992
        y = 113.558441227
    [[NOTE 130]]
        text = "502"
        x = 58.7573593129
        y = 159.585786438
    [[NOTE 131]]
        text = "--"
        x = 693.0
        y = 243.0
    [[NOTE 132]]
        text = "|"
        x = 709.007755419
        y = -78.4299782083
    [[NOTE 133]]
        text = "|"
        x = 687.307791313
        y = 243.97265479
    [[NOTE 134]]
        text = "28.8/24"
        x = 316.095454429
        y = 153.556349186
    [[NOTE 135]]
        text = "|"
        x = 1064.93372902
        y = -104.086832458
    [[NOTE 136]]
        text = "VeriISPon"
        x = -281.497474683
        y = -291.327993849
        font = "MS Shell Dlg 2,12,-1,5,75,0,0,0,0,0"
    [[NOTE 137]]
        text = "11.8/24"
        x = 424.747258045
        y = 121.139177031
    [[NOTE 138]]
        text = "|"
        x = 110.497474683
        y = 337.926406871
    [[NOTE 139]]
        text = "67.16/28*"
        x = 708.997041406
        y = 261.27416998
    [[NOTE 140]]
        text = "Injects Default route"
        x = -286.350288425
        y = 186.298556597
    [[NOTE 141]]
        text = "Injects Default route"
        x = -44.0050506337
        y = 440.200143575
    [[NOTE 142]]
        text = "--"
        x = 713.250396106
        y = -58.2289680823
    [[NOTE 143]]
        text = "163.16/27"
        x = -71.5664504542
        y = 421.829652613
    [[NOTE 144]]
        text = "23.3/29"
        x = -318.811183182
        y = -115.30151519
    [[NOTE 145]]
        text = "|"
        x = 110.497474683
        y = 317.926406871
    [[NOTE 146]]
        text = "32.2/29"
        x = -410.735064737
        y = 109.163563648
    [[NOTE 147]]
        text = "66.0/24*"
        x = 708.997041406
        y = 223.27416998
    [[NOTE 148]]
        text = "36.64/26--"
        x = 728.11836175
        y = 2.39549032316
    [[NOTE 149]]
        text = "MD5 Athentication"
        x = 349.896536344
        y = -334.262843223
    [[NOTE 150]]
        text = "Clear Text Athentication"
        x = -109.048773235
        y = -235.559307779
    [[NOTE 151]]
        text = "205"
        x = 85.0
        y = 78.0
    [[NOTE 152]]
        text = "|"
        x = 709.007755419
        y = -18.4299782086
    [[NOTE 153]]
        text = "Extended ACL"
        x = 1046.5489527
        y = -124.89801564
    [[NOTE 154]]
        text = "10.13.0.0/16"
        x = 851.983981546
        y = -154.977705424
        font = "MS Shell Dlg 2,12,-1,5,75,0,0,0,0,0"
    [[NOTE 155]]
        text = "AS 1"
        x = 249.376767085
        y = 459.761543394
        font = "MS Shell Dlg 2,12,-1,5,75,0,0,0,0,0"
    [[NOTE 156]]
        text = "--"
        x = 408.171572875
        y = 397.585786438
    [[NOTE 157]]
        text = "|"
        x = 1044.59058327
        y = 39.778174593
    [[NOTE 158]]
        text = "AS 1"
        x = -258.325901807
        y = -6.72792206138
        font = "MS Shell Dlg 2,12,-1,5,75,0,0,0,0,0"
    [[NOTE 159]]
        text = "--"
        x = 713.250396106
        y = -78.2289680823
    [[NOTE 160]]
        text = "------"
        x = 678.115403158
        y = 19.1126983722
    [[NOTE 161]]
        text = "^"
        x = 1063.51951545
        y = -109.341666454
    [[NOTE 162]]
        text = "10.15.0.0/16"
        x = 219.553390593
        y = 480.7148622
        font = "MS Shell Dlg 2,12,-1,5,75,0,0,0,0,0"
    [[NOTE 163]]
        text = "OSPF Stub Area 13"
        x = 836.284271247
        y = -183.126983721
        font = "MS Shell Dlg 2,12,-1,5,75,0,0,0,0,0"
        color = "#0055ff"
    [[NOTE 164]]
        text = "36.0/26-"
        x = 726.875721062
        y = -18.6045096768
    [[NOTE 165]]
        text = "Multiple Areas OSPF over Frame-Relay, Gigabit and Fast Ethernet"
        x = -289.913780286
        y = -456.063058585
        font = "MS Shell Dlg 2,20,-1,5,75,0,1,0,0,0"
        color = "#0000ff"
    [[NOTE 166]]
        text = "402"
        x = -109.159379566
        y = 80.4888527117
    [[NOTE 167]]
        text = "------------"
        x = 619.425540319
        y = 222.759451354
    [[NOTE 168]]
        text = "Optical Fiber\nNetwork"
        x = -423.989898732
        y = 203.546247918
        font = "MS Shell Dlg 2,12,-1,5,75,1,0,0,0,0"
        color = "#55aa00"
    [[NOTE 169]]
        text = "165.15/27"
        x = 306.028570699
        y = 363.444876303
    [[NOTE 170]]
        text = "179.9/27"
        x = 675.104689145
        y = 39.1147904131
    [[NOTE 171]]
        text = "16.2/29"
        x = 107.0
        y = 137.0
    [[NOTE 172]]
        text = "163.3/27"
        x = -160.661904884
        y = 385.261110119
    [[NOTE 173]]
        text = "--"
        x = 713.250396106
        y = -78.2289680823
    [[SHAPE 1]]
        type = ellipse
        x = 654.585786438
        y = -156.0
        width = 513.414213562
        height = 358.0
        fill_color = "#00aaff"
        border_style = 2
    [[SHAPE 2]]
        type = ellipse
        x = 588.0
        y = 154.0
        width = 230.0
        height = 258.0
        fill_color = "#00aaff"
        border_style = 2
    [[SHAPE 3]]
        type = ellipse
        x = -266.0
        y = -279.0
        width = 464.0
        height = 588.0
        fill_color = "#00aaff"
        border_style = 2
    [[SHAPE 4]]
        type = ellipse
        x = 168.291413923
        y = -350.724963468
        width = 483.661038331
        height = 688.722004875
        fill_color = "#00ffff"
        border_style = 2
        z = -1.0
    [[SHAPE 5]]
        type = ellipse
        x = -561.442784262
        y = -240.585786438
        width = 671.751442127
        height = 790.585786438
        fill_color = "#ffff7f"
        border_style = 2
        z = -2.0
    [[SHAPE 6]]
        type = ellipse
        x = -11.313708499
        y = -318.198051534
        width = 200.0
        height = 725.491557497
        fill_color = "#00aaff"
        border_style = 2
        z = -3.0
    [[SHAPE 7]]
        type = ellipse
        x = 24.0416305603
        y = 329.511760033
        width = 505.95836944
        height = 176.488239967
        fill_color = "#00aaff"
        border_style = 2
        z = -4.0
