Jul 19 16:11:07.656 HYPERVISOR: Release 0.2.16-amd64/Linux (tag 2015060118)
Jul 19 16:11:07.656 HYPERVISOR: Started on IP = 127.0.0.1, TCP port = 58884.
Jul 19 16:11:07.683 HYPERVISOR: exec_cmd: hypervisor version 
Jul 19 16:11:07.685 HYPERVISOR: exec_cmd: hypervisor working_dir /media/actionmystique/SAMSUNG-850-Ext4/Labs/GNS3/CCNP/TBSHOOT/Exam-Topology/Jean-Christophe_Manciot/1+/v2-solutions-linux/project-files/dynamips 
Jul 19 16:11:07.685 GENERAL: working_dir=/media/actionmystique/SAMSUNG-850-Ext4/Labs/GNS3/CCNP/TBSHOOT/Exam-Topology/Jean-Christophe_Manciot/1+/v2-solutions-linux/project-files/dynamips
Jul 19 16:11:07.686 HYPERVISOR: exec_cmd: vm create R3 7 c7200 
Jul 19 16:11:07.686 VM: VM R3 created.
Jul 19 16:11:07.687 HYPERVISOR: exec_cmd: vm set_con_tcp_port R3 2002 
Jul 19 16:11:07.688 HYPERVISOR: exec_cmd: c7200 get_mac_addr R3 
Jul 19 16:11:07.690 HYPERVISOR: exec_cmd: vm get_status R3 
Jul 19 16:11:07.692 HYPERVISOR: exec_cmd: vm slot_add_binding R3 0 0 C7200-IO-FE 
Jul 19 16:11:07.692 HYPERVISOR: exec_cmd: vm get_status R3 
Jul 19 16:11:07.693 HYPERVISOR: exec_cmd: vm slot_remove_binding R3 0 0 
Jul 19 16:11:07.694 HYPERVISOR: exec_cmd: vm get_status R3 
Jul 19 16:11:07.695 HYPERVISOR: exec_cmd: vm slot_add_binding R3 0 0 C7200-IO-GE-E 
Jul 19 16:11:07.697 HYPERVISOR: exec_cmd: c7200 set_mac_addr R3 ca07.2e65.0000 
Jul 19 16:11:07.702 HYPERVISOR: exec_cmd: vm set_disk0 R3 1 
Jul 19 16:11:07.703 HYPERVISOR: exec_cmd: vm get_status R3 
Jul 19 16:11:07.704 HYPERVISOR: exec_cmd: vm slot_add_binding R3 6 0 PA-POS-OC3 
Jul 19 16:11:07.704 HYPERVISOR: exec_cmd: vm set_ram R3 512 
Jul 19 16:11:07.704 HYPERVISOR: exec_cmd: vm get_status R3 
Jul 19 16:11:07.705 HYPERVISOR: exec_cmd: vm slot_add_binding R3 3 0 PA-GE 
Jul 19 16:11:07.712 HYPERVISOR: exec_cmd: vm set_ios R3 /media/actionmystique/SAMSUNG-850-Ext4/Images/GNS3/IOS/c7200-adventerprisek9-mz.152-4.M2.image 
Jul 19 16:11:07.724 HYPERVISOR: exec_cmd: vm get_status R3 
Jul 19 16:11:07.734 HYPERVISOR: exec_cmd: vm slot_add_binding R3 4 0 PA-4T+ 
Jul 19 16:11:07.737 HYPERVISOR: exec_cmd: vm get_status R3 
Jul 19 16:11:07.739 HYPERVISOR: exec_cmd: vm set_idle_pc R3 0x6062f0e0 
Jul 19 16:11:07.740 HYPERVISOR: exec_cmd: vm get_status R3 
Jul 19 16:11:07.742 HYPERVISOR: exec_cmd: vm slot_add_binding R3 1 0 PA-GE 
Jul 19 16:11:07.743 HYPERVISOR: exec_cmd: vm get_status R3 
Jul 19 16:11:07.744 HYPERVISOR: exec_cmd: vm slot_add_binding R3 5 0 PA-POS-OC3 
Jul 19 16:11:07.745 HYPERVISOR: exec_cmd: vm get_status R3 
Jul 19 16:11:07.747 HYPERVISOR: exec_cmd: vm slot_add_binding R3 2 0 PA-GE 
Jul 19 16:11:07.748 HYPERVISOR: exec_cmd: vm set_nvram R3 256 
Jul 19 16:11:07.750 HYPERVISOR: exec_cmd: vm set_config R3 configs/i7_startup-config.cfg 
Jul 19 16:11:07.752 HYPERVISOR: exec_cmd: vm set_config R3 configs/i7_startup-config.cfg configs/i7_private-config.cfg 
Jul 19 16:11:08.127 HYPERVISOR: exec_cmd: nio create_tap tap-463b02fa-6aad-401a-8aac-d1b88b15d60a tap0 
Jul 19 16:11:08.131 HYPERVISOR: exec_cmd: vm slot_add_nio_binding R3 0 0 tap-463b02fa-6aad-401a-8aac-d1b88b15d60a 
Jul 19 16:11:08.133 HYPERVISOR: exec_cmd: vm get_status R3 
Jul 19 16:11:08.666 HYPERVISOR: exec_cmd: nio create_udp udp-b36b928e-426a-4ab8-ac01-3e196b6059d8 15036 127.0.0.1 15037 
Jul 19 16:11:08.667 HYPERVISOR: exec_cmd: vm slot_add_nio_binding R3 4 0 udp-b36b928e-426a-4ab8-ac01-3e196b6059d8 
Jul 19 16:11:08.670 HYPERVISOR: exec_cmd: vm get_status R3 
Jul 19 16:16:33.577 HYPERVISOR: exec_cmd: vm get_status R3 
Jul 19 16:16:33.581 HYPERVISOR: exec_cmd: vm extract_config R3 
Jul 19 16:16:33.589 HYPERVISOR: exec_cmd: vm delete R3 
Jul 19 16:16:33.589 VM: VM R3 destroyed.
Jul 19 16:16:33.592 HYPERVISOR: exec_cmd: hypervisor stop 
Jul 19 16:16:33.975 HYPERVISOR: Stopped.
Jul 19 16:16:33.975 GENERAL: reset done.
