tclsh
foreach address {
1.1.1.1
2.2.2.2
3.3.3.3
4.4.4.4
5.5.5.5
6.6.6.6
7.7.7.7
192.168.123.1
192.168.123.2
192.168.123.3
192.168.234.2
192.168.234.3
192.168.234.4
192.168.35.3
192.168.35.5
192.168.35.6
192.168.45.4
192.168.45.5
192.168.45.7
} {
ping $address }
exit
